CSC3107 Tidyverse Lab: ASEAN Per-Capita Meat Production
…
The team predicted that poultry and pig meat would dominate many per-capita values because these are common meats and can usually be produced at larger scale than cattle, sheep, or goats. We also expected Singapore to have low domestic production per resident because of its limited land area and dependence on food imports.

3.2 Import the ASEAN Meat Production Data

The relevant meat production table is on sheet X.14. The selected range keeps the country-level table and ASEAN aggregate column while excluding title rows and source notes.

meat_raw <- read_xlsx(
  "ASEAN-Statistical-Yearbook-2023.xlsx",
  sheet = "X.14",
  range = "A4:L36"
)

meat_raw

# A tibble: 32 × 12
   `Animal Type`       `Brunei Darussalam` Cambodia Indonesia `Lao PDR` Malaysia
   <chr>                             <dbl>    <dbl>     <dbl>     <dbl>    <dbl>
 1 2021                            NA          NA         NA      NA       NA   
 2 Livestock producti…             NA          NA         NA      NA       NA   
 3 Beef and Buffalo M…              4.27       59.5      459.     61.3     40.8 
 4 Pig meat                         0.0314    107.       324.    102.     219.  
 5 Mutton and Goat Me…              0.0709      0        118.      2.83     3.62
 6 Poultry production               0           0          0       0        0   
 7 Poultry meat                    31.6        27.8     3889.     43.2   1625.  
 8 Total meat product…             36.0       195.      4789.    209.    1889.  
 9 2020                             0           0          0       0        0   
10 Livestock producti…              0           0          0       0        0   
# ℹ 22 more rows
# ℹ 6 more variables: Myanmar <dbl>, Philippines <dbl>, Singapore <dbl>,
#   Thailand <dbl>, `Viet Nam` <dbl>, ASEAN <dbl>
…
pop_tidy

# A tibble: 100 × 3
   country            year     pop
   <chr>             <dbl>   <dbl>
 1 Brunei Darussalam  2022    445.
 2 Cambodia           2022  16843.
 3 Indonesia          2022 275720.
 4 Lao PDR            2022   7443.
 5 Malaysia           2022  32698.
 6 Myanmar            2022  55770.
 7 Philippines        2022 111572.
 8 Singapore          2022   5637.
 9 Thailand           2022  66090 
10 Viet Nam           2022  99462.
# ℹ 90 more rows
…
✔ No differences

3.8 Join Meat Production to Population

A left join preserves every row and the row order of meat_tidy while adding population values for matching countries and years.

merged <- meat_tidy |>
  # Using left_join to preserve every row of meat_tidy
  left_join(pop_tidy, by = c("country", "year")) |>
  select(country, animal, year, production, pop)

merged

# A tibble: 160 × 5
   country           animal            year production     pop
   <chr>             <chr>            <dbl>      <dbl>   <dbl>
 1 Brunei Darussalam beef and buffalo  2021     4.27      430.
 2 Cambodia          beef and buffalo  2021    59.5     16592.
 3 Indonesia         beef and buffalo  2021   459.     272248.
 4 Lao PDR           beef and buffalo  2021    61.3      7338.
 5 Malaysia          beef and buffalo  2021    40.8     32576.
 6 Myanmar           beef and buffalo  2021   137.      55295.
 7 Philippines       beef and buffalo  2021   183.     110198 
 8 Singapore         beef and buffalo  2021     0.0342   5454.
 9 Thailand          beef and buffalo  2021   155.      65213.
10 Viet Nam          beef and buffalo  2021   348.      98506.
# ℹ 150 more rows
…
[1] TRUE

3.9 Derive Per-Capita Production

Both source variables are stored in thousands, so kilograms per person is calculated as production / pop * 1000.

merged <- merged |>
  mutate(meat_per_cap = production / pop * 1000)

merged

# A tibble: 160 × 6
   country           animal            year production     pop meat_per_cap
   <chr>             <chr>            <dbl>      <dbl>   <dbl>        <dbl>
 1 Brunei Darussalam beef and buffalo  2021     4.27      430.      9.92   
 2 Cambodia          beef and buffalo  2021    59.5     16592.      3.59   
 3 Indonesia         beef and buffalo  2021   459.     272248.      1.69   
 4 Lao PDR           beef and buffalo  2021    61.3      7338.      8.35   
 5 Malaysia          beef and buffalo  2021    40.8     32576.      1.25   
 6 Myanmar           beef and buffalo  2021   137.      55295.      2.48   
 7 Philippines       beef and buffalo  2021   183.     110198       1.66   
 8 Singapore         beef and buffalo  2021     0.0342   5454.      0.00628
 9 Thailand          beef and buffalo  2021   155.      65213.      2.37   
10 Viet Nam          beef and buffalo  2021   348.      98506.      3.53   
# ℹ 150 more rows
…
